Shiny in Production - Deployment & Administration
…
[1] "47e1338f-54a8-4b0e-9b3c-e4380611b30f"

All content/users have a unique indentifier (guid)

Obtain (Your) Shiny Apps

library(dplyr)

meta_df <- get_content(client) |>
  filter(owner_guid == my_guid) |>
  select(guid, name, title)

meta_df

# A tibble: 27 × 3
   guid                                 name            title          
   <chr>                                <chr>           <chr>          
 1 40dd2969-5d67-4940-89c4-08fe31fd1c74 brickapp        brickapp       
 2 fba6896e-49e4-45c6-856f-03a3bc4f498f legobricksapp   legobricks.app 
 3 626d6bb1-f36d-4c9b-bc9e-5cb44f46e698 hellogolem22    hellogolem2    
 4 6f8116dc-eabf-4a64-aacb-4aeffbb4eaa4 golembrochure2  golembrochure  
 5 a4e6809f-4858-4888-a848-94925d3df4a0 golembrochure   golembrochure  
 6 f268d424-a286-41b9-91f1-ae458797e64a golemhellolocal golemhellolocal
 7 4d9124a0-158b-4bd9-9b65-07b877db0906 test            test           
 8 c60de16e-0b29-4267-a2c5-0eb6815d7999 hellogolem3     hellogolem     
 9 2aec4c5b-144f-4a6c-8abf-7d07a17d78b2 hellogolem      hellogolem     
10 344b9f1b-ddbe-4145-a1f0-eb6608662f08 hellogolem2     hellogolem     
# ℹ 17 more rows
…
